{
  "db": {
    "host": "localhost",
    "port": 3306,
    "database": "angular_node_modules_db",
    "password": "ARMsoldier547",
    "name": "db",
    "user": "root",
    "connector": "mysql",
    "createDatabase": true,
    "insecureAuth": false,
    "rejectUnauthorized": false
  },
  "emailDataSource": {
    "name": "emailDataSource",
    "connector": "mail",
    "transports": [
      {
        "type": "smtp",
        "host": "email-smtp.us-west-2.amazonaws.com",
        "secure": true,
        "port": 465,
        "tls": {
          "rejectUnauthorized": true
        },
        "auth": {
          "user": "AKIAIDCOJJJOR5UXJZIA",
          "pass": "AnAdlf5VLXyzmr32Qo1q0Btj/s31HfBoQ1yN/p4DYdPT"
        }
      }
    ]
  }
}
